data_explore.rmd
…
boot_ross %>%
  summarize(mean_est = mean(estimate),
            se_est = sd(estimate))

## # A tibble: 200 x 3
##    replicate mean_est se_est
##        <int>    <dbl>  <dbl>
##  1         1     2.62     NA
##  2         2     2.32     NA
##  3         3     2.58     NA
##  4         4     3.74     NA
##  5         5     2.13     NA
##  6         6     2.68     NA
##  7         7     3.07     NA
##  8         8     2.51     NA
##  9         9     3.04     NA
## 10        10     2.47     NA
## #  with 190 more rows
…
